<?xml version="1.0" standalone="no"?>
<!DOCTYPE svg PUBLIC "-//W3C//DTD SVG 20010904//EN"
 "http://www.w3.org/TR/2001/REC-SVG-20010904/DTD/svg10.dtd">
<svg version="1.0" xmlns="http://www.w3.org/2000/svg"
 width="475.000000pt" height="475.000000pt" viewBox="0 0 475.000000 475.000000"
 preserveAspectRatio="xMidYMid meet">
<metadata>
Created by potrace 1.14, written by Peter Selinger 2001-2017
</metadata>
<g transform="translate(0.000000,475.000000) scale(0.100000,-0.100000)"
fill="#000000" stroke="none">
<path d="M389 4268 c0 -18 -2 -40 -4 -48 -3 -19 -16 -141 -20 -195 -2 -22 -6
-62 -9 -90 -3 -27 -8 -75 -11 -105 -3 -30 -7 -71 -10 -90 -2 -19 -7 -62 -10
-95 -2 -33 -7 -80 -10 -105 -2 -25 -7 -70 -10 -100 -3 -30 -8 -71 -10 -90 -5
-48 -15 -145 -20 -205 -3 -27 -7 -70 -10 -95 -2 -25 -7 -70 -10 -100 -3 -30
-8 -71 -10 -90 -3 -19 -7 -64 -10 -100 -8 -87 -15 -159 -20 -190 -2 -14 -6
-61 -10 -104 -4 -43 -8 -86 -10 -95 -2 -9 -6 -54 -10 -100 -4 -47 -8 -92 -10
-100 -1 -9 -6 -50 -9 -91 -4 -41 -9 -91 -11 -110 -7 -54 -34 -318 -40 -385 -3
-33 -8 -76 -10 -95 -3 -19 -8 -66 -11 -103 -3 -37 -7 -77 -9 -87 -2 -10 -7
-61 -11 -112 -3 -51 -8 -95 -10 -98 -1 -3 -5 -42 -9 -85 -3 -44 -8 -96 -10
-115 -8 -58 -14 -112 -19 -170 -3 -30 -8 -80 -11 -110 -3 -30 -8 -76 -11 -102
l-5 -48 294 0 c228 0 294 3 294 13 1 15 13 138 18 187 3 19 7 60 10 90 3 30 7
75 10 100 5 49 13 125 21 210 2 30 7 71 9 90 3 19 7 60 10 90 3 30 8 71 10 90
3 19 7 67 10 105 3 39 8 81 10 95 2 14 7 59 10 100 4 41 8 86 10 100 2 14 7
54 10 90 3 36 8 81 10 100 12 102 16 140 20 185 5 72 15 166 20 195 2 14 7 58
10 98 4 41 8 82 10 92 2 11 7 59 10 107 4 48 9 95 10 103 2 8 6 49 10 90 3 41
8 86 10 100 2 14 9 72 15 130 6 58 13 134 17 170 4 36 7 73 7 83 0 26 13 21
25 -10 6 -16 19 -41 29 -58 10 -16 56 -97 102 -180 85 -153 105 -188 140 -250
10 -19 36 -65 56 -102 20 -37 40 -72 44 -78 4 -5 23 -39 42 -75 20 -36 88
-159 153 -275 64 -115 131 -235 148 -265 16 -30 53 -95 81 -145 28 -49 62
-111 76 -137 118 -221 165 -297 176 -286 6 7 63 105 126 218 63 113 132 234
152 269 39 68 39 83 5 133 -11 14 -19 28 -19 31 0 2 -51 94 -113 203 -63 110
-125 219 -139 244 -14 25 -64 113 -110 195 -47 83 -111 195 -143 250 -32 55
-62 107 -66 115 -5 8 -34 60 -65 115 -31 55 -68 120 -82 145 -14 25 -56 98
-94 163 -37 65 -68 119 -68 121 0 2 -41 75 -91 162 -51 88 -103 179 -117 204
-14 25 -58 103 -98 173 -41 71 -74 133 -74 138 0 5 -119 9 -280 9 l-280 0 -1
-32z"/>
<path d="M3743 4193 c-34 -60 -71 -126 -83 -148 -12 -22 -39 -69 -60 -105 -20
-36 -49 -85 -62 -110 -14 -25 -70 -124 -125 -220 -55 -96 -111 -195 -125 -220
-14 -25 -41 -72 -60 -105 -19 -33 -106 -186 -193 -340 -87 -154 -170 -300
-185 -325 -15 -25 -41 -70 -57 -100 -17 -30 -46 -82 -65 -115 -43 -75 -332
-584 -366 -645 -14 -25 -45 -78 -69 -118 -24 -41 -43 -75 -43 -77 0 -1 -50
-90 -111 -196 -61 -107 -124 -216 -139 -244 -15 -27 -98 -173 -184 -324 -86
-151 -156 -277 -156 -281 0 -4 -7 -13 -15 -20 -8 -7 -15 -19 -15 -26 0 -12 56
-14 328 -14 l328 0 182 327 c101 181 189 339 197 353 29 49 282 507 325 585
23 44 46 85 50 90 8 10 36 62 98 175 19 36 38 70 42 75 4 6 23 39 42 75 20 36
98 178 175 315 77 138 155 277 173 310 18 33 74 132 123 220 49 88 105 189
125 225 19 36 38 69 42 73 4 5 11 -22 15 -60 4 -37 9 -83 11 -100 2 -18 6 -56
9 -85 2 -29 7 -73 10 -98 6 -51 14 -124 20 -190 2 -25 7 -67 10 -95 2 -27 7
-75 10 -105 3 -30 7 -71 10 -90 2 -19 7 -62 10 -95 3 -33 7 -73 10 -90 2 -16
6 -66 10 -110 3 -44 8 -91 10 -105 4 -29 10 -85 25 -230 6 -58 13 -121 15
-140 2 -19 7 -64 10 -100 4 -36 8 -81 10 -100 2 -19 7 -66 10 -105 3 -38 8
-77 10 -85 2 -8 7 -49 10 -90 4 -41 8 -86 10 -100 2 -14 7 -59 11 -100 3 -41
8 -86 9 -100 2 -14 6 -54 9 -90 4 -36 9 -78 11 -95 3 -16 7 -66 11 -110 4 -44
8 -87 10 -95 1 -8 3 -25 3 -37 l1 -23 294 0 c275 0 295 1 292 17 -2 10 -7 50
-10 88 -12 119 -16 159 -21 195 -3 19 -7 64 -10 100 -3 36 -8 81 -10 100 -2
19 -6 64 -9 100 -4 36 -8 76 -10 90 -3 14 -7 57 -10 95 -4 39 -8 86 -10 105
-3 19 -8 67 -11 105 -4 39 -8 81 -10 95 -1 14 -5 57 -9 95 -11 109 -16 156
-21 205 -3 25 -7 63 -10 85 -2 22 -6 60 -9 85 -3 25 -8 81 -12 125 -3 44 -8
88 -9 97 -2 9 -7 48 -10 85 -4 37 -8 84 -10 103 -2 19 -7 67 -10 105 -4 39 -8
81 -10 95 -2 14 -7 52 -10 85 -3 33 -8 76 -10 95 -3 19 -7 64 -10 100 -3 36
-8 85 -11 110 -2 25 -6 65 -9 90 -12 121 -23 229 -30 290 -3 25 -8 70 -10 100
-3 30 -7 71 -10 90 -2 19 -7 62 -10 95 -7 73 -14 145 -20 205 -3 25 -7 72 -11
105 -3 33 -7 76 -9 95 -2 19 -7 67 -11 105 -3 39 -8 77 -9 85 -2 13 -41 15
-276 18 l-275 2 -61 -107z"/>
<path d="M2780 968 c-12 -24 -29 -56 -39 -73 -10 -16 -33 -57 -51 -90 -18 -33
-68 -123 -112 -200 l-78 -140 155 -3 c85 -1 225 -1 310 0 l155 3 -111 195
c-61 107 -122 215 -137 240 -14 25 -32 57 -39 72 -22 42 -29 42 -53 -4z"/>
</g>
</svg>
