{
  "version": 1,
  "title": "Sanity Basic with NuxtJS",
  "description": "Basic website .",
  
  "technologies": [
    {
      "id": "nuxt",
      "name": "Nuxt.js",
      "url": "https://nuxtjs.org/"
    },
    {
      "id": "netlify",
      "name": "Netlify",
      "url": "https://www.netlify.com/"
    }
  ],
  "deployments": [
    {
      "id": "studio",
      "type": "studio",
      "title": "Sanity Studio",
      "description": "The Sanity Studio is where you edit and structure your content.",
      "dir": "./studio",
      "provider": {
        "name": "netlify",
        "config": {
          "base": "/",
          "dir": "/studio/dist",
          "cmd": "npm run build && cp studio/netlify.toml studio/dist"
        }
      },
      
    }
  ]
}